<?xml version="1.0" encoding="UTF-8" standalone="no"?>
<!-- Created with Inkscape (http://www.inkscape.org/) -->

<svg
   width="320px"
   height="100px"
   viewBox="0 0 320 100"
   version="1.1"
   id="SVGRoot"
   sodipodi:docname="tomkoid-repo.svg"
   inkscape:version="1.2.2 (b0a8486541, 2022-12-01)"
   xml:space="preserve"
   inkscape:export-filename="tomkoid-repo.png"
   inkscape:export-xdpi="300"
   inkscape:export-ydpi="300"
   xmlns:inkscape="http://www.inkscape.org/namespaces/inkscape"
   xmlns:sodipodi="http://sodipodi.sourceforge.net/DTD/sodipodi-0.dtd"
   xmlns="http://www.w3.org/2000/svg"
   xmlns:svg="http://www.w3.org/2000/svg"
   xmlns:rdf="http://www.w3.org/1999/02/22-rdf-syntax-ns#"
   xmlns:cc="http://creativecommons.org/ns#"><sodipodi:namedview
     id="namedview108"
     pagecolor="#24273a"
     bordercolor="#666666"
     borderopacity="1.0"
     inkscape:showpageshadow="2"
     inkscape:pageopacity="1"
     inkscape:pagecheckerboard="false"
     inkscape:deskcolor="#d1d1d1"
     inkscape:document-units="px"
     showgrid="false"
     inkscape:zoom="1.9919472"
     inkscape:cx="146.59023"
     inkscape:cy="61.999634"
     inkscape:window-width="1352"
     inkscape:window-height="724"
     inkscape:window-x="1029"
     inkscape:window-y="121"
     inkscape:window-maximized="1"
     inkscape:current-layer="layer1"
     showguides="false" /><defs
     id="defs103" /><g
     inkscape:label="Layer 1"
     inkscape:groupmode="layer"
     id="layer1"><rect
       style="fill:#363a4f;fill-opacity:1;fill-rule:evenodd"
       id="rect253"
       width="259.32101"
       height="65.667755"
       x="30.339493"
       y="17.166122"
       rx="18.799999" /><text
       xml:space="preserve"
       style="font-style:normal;font-weight:normal;font-size:29.7991px;line-height:1.25;font-family:Cantarell;fill:#cad3f5;fill-opacity:1;stroke:none;stroke-width:0.745;-inkscape-font-specification:'Cantarell, @wght=700';font-stretch:normal;font-variant:normal;font-variation-settings:'wght' 700;font-variant-ligatures:normal;font-variant-caps:normal;font-variant-numeric:normal;font-variant-east-asian:normal;stroke-dasharray:none"
       x="48.134209"
       y="60.653179"
       id="text1167"><tspan
         sodipodi:role="line"
         x="48.134209"
         y="60.653179"
         id="tspan1223"
         style="stroke-width:0.745;-inkscape-font-specification:'Cantarell, @wght=700';font-family:Cantarell;font-weight:normal;font-style:normal;font-stretch:normal;font-variant:normal;font-variation-settings:'wght' 700;font-size:29.79910088px;font-variant-ligatures:normal;font-variant-caps:normal;font-variant-numeric:normal;font-variant-east-asian:normal;fill:#cad3f5;fill-opacity:1;stroke-dasharray:none">TOMKOID-REPO</tspan></text><rect
       style="font-variation-settings:'wght' 700;fill:#494d64;fill-opacity:1;stroke:#000000;stroke-width:0;stroke-dasharray:none;stroke-opacity:1"
       id="rect1857"
       width="53.452709"
       height="32.72044"
       x="133.27365"
       y="3.368979"
       rx="18.799999" /><path
       d="m 159.99862,4.6379412 c -1.31384,3.2200591 -2.10583,5.3263516 -3.56811,8.4509838 0.89664,0.950575 1.99704,2.056966 3.78017,3.307188 -1.92143,-0.790609 -3.22697,-1.584444 -4.21166,-2.408245 -1.87164,3.904639 -4.80358,9.467942 -10.75366,20.159368 4.68096,-2.699594 8.30208,-4.363791 11.68487,-4.999965 -0.14521,-0.624189 -0.22773,-1.299088 -0.22128,-2.003029 l 0.006,-0.149824 c 0.0738,-2.996476 1.63285,-5.300536 3.47914,-5.143797 1.84629,0.156739 3.28137,2.713424 3.20715,5.7099 a 8.4638919,8.4638919 0 0 1 -0.18855,1.609338 c 3.34222,0.653693 6.92877,2.314202 11.54196,4.977377 l -2.4986,-4.621948 c -1.22164,-0.946426 -2.49537,-2.178669 -5.09401,-3.512792 1.78637,0.464223 3.06563,0.99944 4.05677,1.598274 -7.88303,-14.678122 -8.52198,-16.628137 -11.22526,-22.9728288 z"
       fill="#1793d1"
       fill-rule="evenodd"
       id="path1842"
       style="stroke:#000000;stroke-width:0;stroke-dasharray:none;stroke-opacity:1" /></g><metadata
     id="metadata1871"><rdf:RDF><cc:Work
         rdf:about=""><cc:license
           rdf:resource="http://creativecommons.org/licenses/by-sa/4.0/" /></cc:Work><cc:License
         rdf:about="http://creativecommons.org/licenses/by-sa/4.0/"><cc:permits
           rdf:resource="http://creativecommons.org/ns#Reproduction" /><cc:permits
           rdf:resource="http://creativecommons.org/ns#Distribution" /><cc:requires
           rdf:resource="http://creativecommons.org/ns#Notice" /><cc:requires
           rdf:resource="http://creativecommons.org/ns#Attribution" /><cc:permits
           rdf:resource="http://creativecommons.org/ns#DerivativeWorks" /><cc:requires
           rdf:resource="http://creativecommons.org/ns#ShareAlike" /></cc:License></rdf:RDF></metadata></svg>
