<?xml version="1.0" encoding="UTF-8" standalone="no"?>
<!-- Created with Inkscape (http://www.inkscape.org/) -->

<svg
   width="100"
   height="100"
   viewBox="0 0 100 100"
   version="1.1"
   id="SVGRoot"
   sodipodi:docname="tomkoid-repo-small.svg"
   inkscape:version="1.2.2 (b0a8486541, 2022-12-01)"
   xml:space="preserve"
   inkscape:export-filename="tomkoid-repo-small.png"
   inkscape:export-xdpi="300"
   inkscape:export-ydpi="300"
   xmlns:inkscape="http://www.inkscape.org/namespaces/inkscape"
   xmlns:sodipodi="http://sodipodi.sourceforge.net/DTD/sodipodi-0.dtd"
   xmlns="http://www.w3.org/2000/svg"
   xmlns:svg="http://www.w3.org/2000/svg"
   xmlns:rdf="http://www.w3.org/1999/02/22-rdf-syntax-ns#"
   xmlns:cc="http://creativecommons.org/ns#"><sodipodi:namedview
     id="namedview108"
     pagecolor="#24273a"
     bordercolor="#666666"
     borderopacity="1.0"
     inkscape:showpageshadow="2"
     inkscape:pageopacity="1"
     inkscape:pagecheckerboard="false"
     inkscape:deskcolor="#d1d1d1"
     inkscape:document-units="px"
     showgrid="false"
     inkscape:zoom="2.8170387"
     inkscape:cx="15.619238"
     inkscape:cy="43.130397"
     inkscape:window-width="1352"
     inkscape:window-height="724"
     inkscape:window-x="1029"
     inkscape:window-y="121"
     inkscape:window-maximized="1"
     inkscape:current-layer="layer1"
     showguides="false" /><defs
     id="defs103" /><g
     inkscape:label="Layer 1"
     inkscape:groupmode="layer"
     id="layer1"><rect
       style="font-variation-settings:'wght' 700;fill:#363a4f;fill-opacity:1;stroke:#000000;stroke-width:0;stroke-dasharray:none;stroke-opacity:1"
       id="rect1857"
       width="67.618935"
       height="66.346764"
       x="16.190533"
       y="16.826618"
       rx="23.78244" /><path
       d="m 49.998052,29.48573 c -1.831312,4.477041 -2.935237,7.405546 -4.973453,11.749909 1.249792,1.321642 2.783598,2.859923 5.269035,4.598182 -2.678208,-1.099232 -4.497952,-2.202947 -5.870474,-3.348327 -2.608808,5.428853 -6.695529,13.163846 -14.989121,28.028776 6.524614,-3.753407 11.571957,-6.06724 16.2871,-6.951751 -0.202403,-0.867848 -0.317424,-1.8062 -0.308434,-2.784931 l 0.0084,-0.208309 c 0.102867,-4.166181 2.275968,-7.369653 4.849442,-7.151729 2.573474,0.217924 4.573777,3.772635 4.470324,7.938815 a 11.797499,11.767855 0 0 1 -0.262813,2.23756 c 4.658596,0.908868 9.657752,3.217573 16.087903,6.920345 l -3.482704,-6.426171 c -1.702798,-1.315873 -3.478202,-3.029134 -7.100348,-4.884046 2.489954,0.645438 4.273065,1.389581 5.654578,2.222176 C 54.649594,41.018358 53.758985,38.307135 49.990985,29.48573 Z"
       fill="#1793d1"
       fill-rule="evenodd"
       id="path1842"
       style="stroke:#000000;stroke-width:0;stroke-dasharray:none;stroke-opacity:1" /></g><metadata
     id="metadata1871"><rdf:RDF><cc:Work
         rdf:about=""><cc:license
           rdf:resource="http://creativecommons.org/licenses/by-sa/4.0/" /></cc:Work><cc:License
         rdf:about="http://creativecommons.org/licenses/by-sa/4.0/"><cc:permits
           rdf:resource="http://creativecommons.org/ns#Reproduction" /><cc:permits
           rdf:resource="http://creativecommons.org/ns#Distribution" /><cc:requires
           rdf:resource="http://creativecommons.org/ns#Notice" /><cc:requires
           rdf:resource="http://creativecommons.org/ns#Attribution" /><cc:permits
           rdf:resource="http://creativecommons.org/ns#DerivativeWorks" /><cc:requires
           rdf:resource="http://creativecommons.org/ns#ShareAlike" /></cc:License></rdf:RDF></metadata></svg>
